\relax 
\providecommand\hyper@newdestlabel[2]{}
\@writefile{toc}{\defcounter {refsection}{0}\relax }\@writefile{toc}{\contentsline {chapter}{\numberline {4}A Numerical Investigation}{27}{chapter.4}}
\@writefile{lof}{\defcounter {refsection}{0}\relax }\@writefile{lof}{\addvspace {10\p@ }}
\@writefile{lot}{\defcounter {refsection}{0}\relax }\@writefile{lot}{\addvspace {10\p@ }}
\@writefile{lol}{\defcounter {refsection}{0}\relax }\@writefile{lol}{\addvspace {10\p@ }}
\@writefile{toc}{\defcounter {refsection}{0}\relax }\@writefile{toc}{\contentsline {section}{\numberline {4.1}Reducing $E(\mathbb  {Q})$ into $E(\mathbb  {F}_p)$}{27}{section.4.1}}
\@writefile{lof}{\defcounter {refsection}{0}\relax }\@writefile{lof}{\contentsline {figure}{\numberline {4.1}{\ignorespaces The graph of $(p, [E(\mathbb  F_p) : E(\mathbb  Q) \DOTSB \lhook \joinrel  \rightarrow E(\mathbb  F_p)])$ for 37a\relax }}{28}{figure.caption.18}}
\@writefile{lof}{\defcounter {refsection}{0}\relax }\@writefile{lof}{\contentsline {figure}{\numberline {4.2}{\ignorespaces The graph of $(p, F_E(p))$ for {\relax \fontsize  {8}{9.5}\selectfont  \texttt  {E = EllipticCurve('37a')}}.\relax }}{28}{figure.caption.19}}
\newlabel{accumulation_plots}{{4.2}{28}{The graph of $(p, F_E(p))$ for {\scriptsize \texttt {E = EllipticCurve('37a')}}.\relax }{figure.caption.19}{}}
\@writefile{lof}{\defcounter {refsection}{0}\relax }\@writefile{lof}{\contentsline {figure}{\numberline {4.3}{\ignorespaces Graphs of $(p, F_E(p))$ for 50 curves, 10 of each rank\relax }}{29}{figure.caption.20}}
\@writefile{lof}{\defcounter {refsection}{0}\relax }\@writefile{lof}{\contentsline {figure}{\numberline {4.5}{\ignorespaces The graph of $(n, \frac  {1}{F_E(p)})$.\relax }}{30}{figure.caption.22}}
\newlabel{accumulation_index_huge}{{4.5}{30}{The graph of $(n, \frac {1}{F_E(p)})$.\relax }{figure.caption.22}{}}
\@writefile{lof}{\defcounter {refsection}{0}\relax }\@writefile{lof}{\contentsline {figure}{\numberline {4.6}{\ignorespaces Accumulation Function $\frac  {1}{F_E(p)}$ separated for each rank\relax }}{31}{figure.caption.23}}
\@writefile{lof}{\defcounter {refsection}{0}\relax }\@writefile{lof}{\contentsline {figure}{\numberline {4.7}{\ignorespaces Examples of $\frac  {1}{F_E(p)}$ for one curve of each rank 1-5\relax }}{31}{figure.caption.24}}
\newlabel{example_accumulation}{{4.7}{31}{Examples of $\frac {1}{F_E(p)}$ for one curve of each rank 1-5\relax }{figure.caption.24}{}}
\@writefile{lof}{\defcounter {refsection}{0}\relax }\@writefile{lof}{\contentsline {figure}{\numberline {4.8}{\ignorespaces And then I histogrammed.\relax }}{32}{figure.caption.25}}
\newlabel{accumulation_hist_huge}{{4.8}{32}{And then I histogrammed.\relax }{figure.caption.25}{}}
\@writefile{lof}{\defcounter {refsection}{0}\relax }\@writefile{lof}{\contentsline {figure}{\numberline {4.9}{\ignorespaces $|E(\mathbb  {F}_p)|/|E(\mathbb  {Q}) \DOTSB \lhook \joinrel  \rightarrow E(\mathbb  {F}_p)|$ at the $n^\text  {th}$ prime\relax }}{32}{figure.caption.26}}
\newlabel{which_divisor}{{4.9}{32}{$|E(\F _p)|/|E(\Q ) \hookrightarrow E(\F _p)|$ at the $n^\text {th}$ prime\relax }{figure.caption.26}{}}
\@writefile{lof}{\defcounter {refsection}{0}\relax }\@writefile{lof}{\contentsline {figure}{\numberline {4.10}{\ignorespaces $|E(\mathbb  {Q}) \DOTSB \lhook \joinrel  \rightarrow E(F_p)|$ for 37a\relax }}{33}{figure.caption.27}}
\@writefile{toc}{\defcounter {refsection}{0}\relax }\@writefile{toc}{\contentsline {section}{\numberline {4.2}Generating a Subgroup with $(0,0)$}{34}{section.4.2}}
\@writefile{lof}{\defcounter {refsection}{0}\relax }\@writefile{lof}{\contentsline {figure}{\numberline {4.11}{\ignorespaces $F_1, F_2, F_3, F_4$ plotted as functions of $n^\text  {th}$ primes on a loglog plot\relax }}{35}{figure.caption.28}}
\@writefile{lof}{\defcounter {refsection}{0}\relax }\@writefile{lof}{\contentsline {figure}{\numberline {4.12}{\ignorespaces Analysis of $F_1$ and $F_2$ for 100 Primes\relax }}{35}{figure.caption.29}}
\newlabel{analyze_f1_f2}{{4.12}{35}{Analysis of $F_1$ and $F_2$ for 100 Primes\relax }{figure.caption.29}{}}
\@writefile{lof}{\defcounter {refsection}{0}\relax }\@writefile{lof}{\contentsline {figure}{\numberline {4.13}{\ignorespaces Analyzing $F_3$ for 100 Primes\relax }}{36}{figure.caption.30}}
\@writefile{lof}{\defcounter {refsection}{0}\relax }\@writefile{lof}{\contentsline {figure}{\numberline {4.14}{\ignorespaces $F_1$ and $F_2$ Revisited with Logarithms\relax }}{37}{figure.caption.31}}
\@writefile{lof}{\defcounter {refsection}{0}\relax }\@writefile{lof}{\contentsline {figure}{\numberline {4.15}{\ignorespaces Graphs of ($F_1$(p), $F_2(p)$) and ($p$, $F_2(p)\sqrt  {e}-F_1(p)$)\relax }}{38}{figure.caption.32}}
\newlabel{sqrt_e}{{4.15}{38}{Graphs of ($F_1$(p), $F_2(p)$) and ($p$, $F_2(p)\sqrt {e}-F_1(p)$)\relax }{figure.caption.32}{}}
\@writefile{toc}{\defcounter {refsection}{0}\relax }\@writefile{toc}{\contentsline {section}{\numberline {4.3}When is the Subgroup the Group?}{39}{section.4.3}}
\@writefile{lof}{\defcounter {refsection}{0}\relax }\@writefile{lof}{\contentsline {figure}{\numberline {4.16}{\ignorespaces A Graph of $(|E_{A,B}(\mathbb  {F}_p)|,\tmspace  +\thinmuskip {.1667em} |\delimiter "426830A (0,0) \delimiter "526930B |)$ for 100 Primes\relax }}{39}{figure.caption.33}}
\newlabel{EFp_S}{{4.16}{39}{A Graph of $(|E_{A,B}(\F _p)|,\, |\langle (0,0) \rangle |)$ for 100 Primes\relax }{figure.caption.33}{}}
\@writefile{lof}{\defcounter {refsection}{0}\relax }\@writefile{lof}{\contentsline {figure}{\numberline {4.17}{\ignorespaces How Often is $\delimiter "426830A (0,0) \delimiter "526930B = E_{A,B}(\mathbb  {F}_p)$?\relax }}{40}{figure.caption.34}}
\@writefile{lof}{\defcounter {refsection}{0}\relax }\@writefile{lof}{\contentsline {figure}{\numberline {4.18}{\ignorespaces $\mathaccentV {tilde}67EF(p,2)$\relax }}{40}{figure.caption.35}}
\@writefile{lof}{\defcounter {refsection}{0}\relax }\@writefile{lof}{\contentsline {figure}{\numberline {4.19}{\ignorespaces $\mathaccentV {tilde}67EF(p,3)$\relax }}{40}{figure.caption.36}}
\@writefile{lof}{\defcounter {refsection}{0}\relax }\@writefile{lof}{\contentsline {figure}{\numberline {4.20}{\ignorespaces Error Decays Exponentially\relax }}{41}{figure.caption.37}}
\@writefile{toc}{\defcounter {refsection}{0}\relax }\@writefile{toc}{\contentsline {section}{\numberline {4.4}On Progress}{42}{section.4.4}}
\@setckpt{chapter4}{
\setcounter{page}{43}
\setcounter{equation}{0}
\setcounter{enumi}{0}
\setcounter{enumii}{0}
\setcounter{enumiii}{0}
\setcounter{enumiv}{0}
\setcounter{footnote}{0}
\setcounter{mpfootnote}{0}
\setcounter{nag@c}{51}
\setcounter{part}{0}
\setcounter{chapter}{4}
\setcounter{section}{4}
\setcounter{subsection}{0}
\setcounter{subsubsection}{0}
\setcounter{paragraph}{0}
\setcounter{subparagraph}{0}
\setcounter{figure}{20}
\setcounter{table}{0}
\setcounter{parentequation}{0}
\setcounter{Item}{0}
\setcounter{Hfootnote}{0}
\setcounter{Hy@AnnotLevel}{0}
\setcounter{bookmark@seq@number}{34}
\setcounter{ContinuedFloat}{0}
\setcounter{subfigure}{0}
\setcounter{subtable}{0}
\setcounter{tabx@nest}{0}
\setcounter{listtotal}{0}
\setcounter{listcount}{0}
\setcounter{liststart}{0}
\setcounter{liststop}{0}
\setcounter{citecount}{0}
\setcounter{citetotal}{0}
\setcounter{multicitecount}{0}
\setcounter{multicitetotal}{0}
\setcounter{instcount}{21}
\setcounter{maxnames}{3}
\setcounter{minnames}{1}
\setcounter{maxitems}{3}
\setcounter{minitems}{1}
\setcounter{citecounter}{0}
\setcounter{savedcitecounter}{0}
\setcounter{uniquelist}{0}
\setcounter{uniquename}{0}
\setcounter{refsection}{0}
\setcounter{refsegment}{0}
\setcounter{maxextratitle}{0}
\setcounter{maxextratitleyear}{0}
\setcounter{maxextrayear}{0}
\setcounter{maxextraalpha}{0}
\setcounter{abbrvpenalty}{50}
\setcounter{highnamepenalty}{50}
\setcounter{lownamepenalty}{25}
\setcounter{maxparens}{3}
\setcounter{parenlevel}{0}
\setcounter{mincomprange}{10}
\setcounter{maxcomprange}{100000}
\setcounter{mincompwidth}{1}
\setcounter{afterword}{0}
\setcounter{savedafterword}{0}
\setcounter{annotator}{0}
\setcounter{savedannotator}{0}
\setcounter{author}{0}
\setcounter{savedauthor}{0}
\setcounter{bookauthor}{0}
\setcounter{savedbookauthor}{0}
\setcounter{commentator}{0}
\setcounter{savedcommentator}{0}
\setcounter{editor}{0}
\setcounter{savededitor}{0}
\setcounter{editora}{0}
\setcounter{savededitora}{0}
\setcounter{editorb}{0}
\setcounter{savededitorb}{0}
\setcounter{editorc}{0}
\setcounter{savededitorc}{0}
\setcounter{foreword}{0}
\setcounter{savedforeword}{0}
\setcounter{holder}{0}
\setcounter{savedholder}{0}
\setcounter{introduction}{0}
\setcounter{savedintroduction}{0}
\setcounter{namea}{0}
\setcounter{savednamea}{0}
\setcounter{nameb}{0}
\setcounter{savednameb}{0}
\setcounter{namec}{0}
\setcounter{savednamec}{0}
\setcounter{translator}{0}
\setcounter{savedtranslator}{0}
\setcounter{shortauthor}{0}
\setcounter{savedshortauthor}{0}
\setcounter{shorteditor}{0}
\setcounter{savedshorteditor}{0}
\setcounter{labelname}{0}
\setcounter{savedlabelname}{0}
\setcounter{institution}{0}
\setcounter{savedinstitution}{0}
\setcounter{lista}{0}
\setcounter{savedlista}{0}
\setcounter{listb}{0}
\setcounter{savedlistb}{0}
\setcounter{listc}{0}
\setcounter{savedlistc}{0}
\setcounter{listd}{0}
\setcounter{savedlistd}{0}
\setcounter{liste}{0}
\setcounter{savedliste}{0}
\setcounter{listf}{0}
\setcounter{savedlistf}{0}
\setcounter{location}{0}
\setcounter{savedlocation}{0}
\setcounter{organization}{0}
\setcounter{savedorganization}{0}
\setcounter{origlocation}{0}
\setcounter{savedoriglocation}{0}
\setcounter{origpublisher}{0}
\setcounter{savedorigpublisher}{0}
\setcounter{publisher}{0}
\setcounter{savedpublisher}{0}
\setcounter{language}{0}
\setcounter{savedlanguage}{0}
\setcounter{pageref}{0}
\setcounter{savedpageref}{0}
\setcounter{textcitecount}{0}
\setcounter{textcitetotal}{0}
\setcounter{textcitemaxnames}{0}
\setcounter{biburlnumpenalty}{0}
\setcounter{biburlucpenalty}{0}
\setcounter{biburllcpenalty}{0}
\setcounter{smartand}{1}
\setcounter{bbx:relatedcount}{0}
\setcounter{bbx:relatedtotal}{0}
\setcounter{FancyVerbLine}{14}
\setcounter{float@type}{8}
\setcounter{linenumber}{1}
\setcounter{LN@truepage}{48}
\setcounter{FancyVerbLineBreakLast}{0}
\setcounter{minted@FancyVerbLineTemp}{82}
\setcounter{listing}{0}
\setcounter{definition}{0}
\setcounter{theorem}{0}
\setcounter{section@level}{1}
}
