[0] Config.pm:324> INFO - This is Biber 2.1
[0] Config.pm:327> INFO - Logfile is 'main.blg'
[77] biber-darwin:276> INFO - === Mon May  1, 2017, 09:47:59
[77] Biber.pm:333> INFO - Reading 'main.bcf'
[234] Biber.pm:645> INFO - Found 17 citekeys in bib section 0
[260] Biber.pm:2977> INFO - Processing section 0
[283] Biber.pm:3115> INFO - Looking for bibtex format file 'main.bib' for section 0
[286] bibtex.pm:1021> INFO - Decoding LaTeX character macros into UTF-8
[289] bibtex.pm:895> INFO - Found BibTeX data source 'main.bib'
[593] UCollate.pm:66> INFO - Overriding locale 'en-US' defaults 'variable = shifted' with 'variable = non-ignorable'
[593] UCollate.pm:66> INFO - Overriding locale 'en-US' defaults 'normalization = NFD' with 'normalization = prenormalized'
[593] Biber.pm:2854> INFO - Sorting list 'nyt' of type 'entry' with scheme 'nyt' and locale 'en-US'
[593] Biber.pm:2858> INFO - No sort tailoring available for locale 'en-US'
[631] bbl.pm:505> INFO - Writing 'main.bbl' with encoding 'UTF-8'
[633] bbl.pm:596> INFO - Output to main.bbl
