\relax 
\providecommand\hyper@newdestlabel[2]{}
\providecommand\HyperFirstAtBeginDocument{\AtBeginDocument}
\HyperFirstAtBeginDocument{\ifx\hyper@anchor\@undefined
\global\let\oldcontentsline\contentsline
\gdef\contentsline#1#2#3#4{\oldcontentsline{#1}{#2}{#3}}
\global\let\oldnewlabel\newlabel
\gdef\newlabel#1#2{\newlabelxx{#1}#2}
\gdef\newlabelxx#1#2#3#4#5#6{\oldnewlabel{#1}{{#2}{#3}}}
\AtEndDocument{\ifx\hyper@anchor\@undefined
\let\contentsline\oldcontentsline
\let\newlabel\oldnewlabel
\fi}
\fi}
\global\let\hyper@last\relax 
\gdef\HyperFirstAtBeginDocument#1{#1}
\providecommand*\HyPL@Entry[1]{}
\abx@aux@sortscheme{nyt}
\HyPL@Entry{0<</S/D>>}
\@writefile{toc}{\boolfalse {citerequest}\boolfalse {citetracker}\boolfalse {pagetracker}\boolfalse {backtracker}\relax }
\@writefile{lof}{\boolfalse {citerequest}\boolfalse {citetracker}\boolfalse {pagetracker}\boolfalse {backtracker}\relax }
\@writefile{lot}{\boolfalse {citerequest}\boolfalse {citetracker}\boolfalse {pagetracker}\boolfalse {backtracker}\relax }
\@writefile{toc}{\defcounter {refsection}{0}\relax }\@writefile{toc}{\nag@@warning@xxii  \relax \fontsize  {10}{12}\selectfont  \abovedisplayskip 10\p@ plus2\p@ minus5\p@ \abovedisplayshortskip \z@ plus3\p@ \belowdisplayshortskip 6\p@ plus3\p@ minus3\p@ \def \leftmargin \leftmargini \parsep 5\p@ plus2.5\p@ minus\p@ \topsep 10\p@ plus4\p@ minus6\p@ \itemsep 5\p@ plus2.5\p@ minus\p@ \topsep \z@ \parsep \parskip \itemsep \z@ {\leftmargin \leftmargini \topsep 6\p@ plus2\p@ minus2\p@ \parsep 3\p@ plus2\p@ minus\p@ \itemsep \parsep }\belowdisplayskip \abovedisplayskip \add@extra@listi {ftns}}
\@writefile{lof}{\defcounter {refsection}{0}\relax }\@writefile{lof}{\nag@@warning@xxii  \relax \fontsize  {10}{12}\selectfont  \abovedisplayskip 10\p@ plus2\p@ minus5\p@ \abovedisplayshortskip \z@ plus3\p@ \belowdisplayshortskip 6\p@ plus3\p@ minus3\p@ \def \leftmargin \leftmargini \parsep 5\p@ plus2.5\p@ minus\p@ \topsep 10\p@ plus4\p@ minus6\p@ \itemsep 5\p@ plus2.5\p@ minus\p@ \topsep \z@ \parsep \parskip \itemsep \z@ {\leftmargin \leftmargini \topsep 6\p@ plus2\p@ minus2\p@ \parsep 3\p@ plus2\p@ minus\p@ \itemsep \parsep }\belowdisplayskip \abovedisplayskip \add@extra@listi {ftns}}
\HyPL@Entry{2<</S/r>>}
\@input{acknowledgements.aux}
\@input{chapter1.aux}
\HyPL@Entry{6<</S/D>>}
\@input{chapter2.aux}
\abx@aux@cite{Bashmakova}
\abx@aux@cite{Stillwell}
\abx@aux@cite{Hartshorne}
\abx@aux@cite{ST15}
\abx@aux@cite{Barrios}
\abx@aux@cite{Ayoub}
\abx@aux@cite{MR890960}
\abx@aux@cite{Hancock}
\abx@aux@cite{Silverman86}
\abx@aux@cite{CBTheorem}
\abx@aux@cite{MR2024529}
\abx@aux@cite{BEM02}
\abx@aux@cite{MR3204294}
\abx@aux@cite{MR2467855}
\abx@aux@cite{MR2383303}
\abx@aux@cite{PomeranceSieves}
\abx@aux@cite{CPPrimes}
\@input{chapter3.aux}
\@input{chapter4.aux}
\@writefile{toc}{\defcounter {refsection}{0}\relax }\@writefile{toc}{\contentsline {chapter}{\nonumberline Bibliography}{43}{chapter*.39}}
\gdef\minted@oldcachelist{,
  default.pygstyle,
  fed3215046f4ce9e8e6b52f8349be8a93fa99ab9.pygtex,
  a789d9a64b4a8f30f40f8a73d6ab7bce13943907.pygtex}
